{
    "endTime": "02/15/2017 23:54:50", 
    "passedTC": 1, 
    "buildNum": "9.2.0-2.2017021422", 
    "totalTC": 1, 
    "failedTC": 0, 
    "startTime": "02/15/2017 23:52:33", 
    "duration": "0Hrs 02Mins 17Secs", 
    "executionResult": "Pass", 
    "_id": "E-530", 
    "testCaseResultList": [
        {
            "testCaseStepResult": [
                {
                    "endTime": "", 
                    "testStepDetail": "Login", 
                    "stepId": "TCS_1", 
                    "startTime": "", 
                    "executionStatus": "Pass"
                }, 
                {
                    "endTime": "", 
                    "testStepDetail": "Encryption Off", 
                    "stepId": "TCS_2", 
                    "startTime": "", 
                    "executionStatus": "Pass"
                }, 
                {
                    "endTime": "", 
                    "testStepDetail": "Addition of windows client", 
                    "stepId": "TCS_3", 
                    "startTime": "", 
                    "executionStatus": "Pass"
                }, 
                {
                    "endTime": "", 
                    "testStepDetail": "Triggering Backup Job", 
                    "stepId": "TCS_4", 
                    "startTime": "", 
                    "executionStatus": "Pass"
                }, 
                {
                    "endTime": "", 
                    "testStepDetail": "Backup Successful", 
                    "stepId": "TCS_5", 
                    "startTime": "", 
                    "executionStatus": "Pass"
                }, 
                {
                    "endTime": "", 
                    "testStepDetail": "Backup Not Encrypted", 
                    "stepId": "TCS_6", 
                    "startTime": "", 
                    "executionStatus": "Pass"
                }, 
                {
                    "endTime": "", 
                    "testStepDetail": "Backup inline deduplicated", 
                    "stepId": "TCS_7", 
                    "startTime": "", 
                    "executionStatus": "Pass"
                }, 
                {
                    "endTime": "", 
                    "testStepDetail": "Triggering Restore of Client", 
                    "stepId": "TCS_8", 
                    "startTime": "", 
                    "executionStatus": "Pass"
                }, 
                {
                    "endTime": "", 
                    "testStepDetail": "Restore Successful", 
                    "stepId": "TCS_9", 
                    "startTime": "", 
                    "executionStatus": "Pass"
                }, 
                {
                    "endTime": "", 
                    "testStepDetail": "Restore verification not matched", 
                    "stepId": "TCS_10", 
                    "startTime": "", 
                    "executionStatus": "Fail"
                }, 
                {
                    "endTime": "", 
                    "testStepDetail": "Delete client", 
                    "stepId": "TCS_11", 
                    "startTime": "", 
                    "executionStatus": "Pass"
                }, 
                {
                    "endTime": "", 
                    "testStepDetail": "Logout", 
                    "stepId": "TCS_12", 
                    "startTime": "", 
                    "executionStatus": "Pass"
                }
            ], 
            "testDescription": "Verify that backup and restore of Windows2016 client with include list, Inline dedupe on and Encryption off is successful", 
            "testCaseId": "QAAUT_Win001", 
            "startTime": "02/15/2017 23:52:33", 
            "executionStatus": "Pass", 
            "duration": "0Hrs 02Mins 16Secs", 
            "endTime": "02/15/2017 23:54:49"
        }
    ]
}