{
    "endTime": "02/16/2017 05:47:49", 
    "passedTC": 12, 
    "buildNum": "9.2.0-2.2017021522", 
    "totalTC": 12, 
    "failedTC": 0, 
    "startTime": "02/16/2017 05:22:57", 
    "duration": "0Hrs 24Mins 52Secs", 
    "executionResult": "Pass", 
    "_id": "E-557", 
    "testCaseResultList": [
        {
            "testCaseStepResult": [
                {
                    "endTime": "", 
                    "testStepDetail": "Login", 
                    "stepId": "TCS_1", 
                    "startTime": "", 
                    "executionStatus": "Pass"
                }, 
                {
                    "endTime": "", 
                    "testStepDetail": "Addition of client", 
                    "stepId": "TCS_2", 
                    "startTime": "", 
                    "executionStatus": "Pass"
                }, 
                {
                    "endTime": "", 
                    "testStepDetail": "Triggering Backup Job", 
                    "stepId": "TCS_3", 
                    "startTime": "", 
                    "executionStatus": "Pass"
                }, 
                {
                    "endTime": "", 
                    "testStepDetail": "Backup Successful", 
                    "stepId": "TCS_4", 
                    "startTime": "", 
                    "executionStatus": "Pass"
                }, 
                {
                    "endTime": "", 
                    "testStepDetail": "Triggering Restore of Client at first location", 
                    "stepId": "TCS_5", 
                    "startTime": "", 
                    "executionStatus": "Pass"
                }, 
                {
                    "endTime": "", 
                    "testStepDetail": "Restore Successful at first location", 
                    "stepId": "TCS_6", 
                    "startTime": "", 
                    "executionStatus": "Pass"
                }, 
                {
                    "endTime": "", 
                    "testStepDetail": "Checksum Verified at first location", 
                    "stepId": "TCS_7", 
                    "startTime": "", 
                    "executionStatus": "Pass"
                }, 
                {
                    "endTime": "", 
                    "testStepDetail": "Triggering Restore of Client at second location", 
                    "stepId": "TCS_8", 
                    "startTime": "", 
                    "executionStatus": "Pass"
                }, 
                {
                    "endTime": "", 
                    "testStepDetail": "Restore Successful at second location", 
                    "stepId": "TCS_9", 
                    "startTime": "", 
                    "executionStatus": "Pass"
                }, 
                {
                    "endTime": "", 
                    "testStepDetail": "Checksum Verified at first location", 
                    "stepId": "TCS_10", 
                    "startTime": "", 
                    "executionStatus": "Pass"
                }, 
                {
                    "endTime": "", 
                    "testStepDetail": "Delete client", 
                    "stepId": "TCS_11", 
                    "startTime": "", 
                    "executionStatus": "Pass"
                }, 
                {
                    "endTime": "", 
                    "testStepDetail": "Logout", 
                    "stepId": "TCS_12", 
                    "startTime": "", 
                    "executionStatus": "Pass"
                }
            ], 
            "testDescription": "Verify if multiple restore for the same data on different locations works on RHEL.", 
            "testCaseId": "QAAUT_D2", 
            "startTime": "02/16/2017 05:22:57", 
            "executionStatus": "Pass", 
            "duration": "0Hrs 01Mins 54Secs", 
            "endTime": "02/16/2017 05:24:51"
        }, 
        {
            "testCaseStepResult": [
                {
                    "endTime": "", 
                    "testStepDetail": "Login", 
                    "stepId": "TCS_1", 
                    "startTime": "", 
                    "executionStatus": "Pass"
                }, 
                {
                    "endTime": "", 
                    "testStepDetail": "Addition of client", 
                    "stepId": "TCS_2", 
                    "startTime": "", 
                    "executionStatus": "Pass"
                }, 
                {
                    "endTime": "", 
                    "testStepDetail": "Triggering Backup Job", 
                    "stepId": "TCS_3", 
                    "startTime": "", 
                    "executionStatus": "Pass"
                }, 
                {
                    "endTime": "", 
                    "testStepDetail": "Backup Successful", 
                    "stepId": "TCS_4", 
                    "startTime": "", 
                    "executionStatus": "Pass"
                }, 
                {
                    "endTime": "", 
                    "testStepDetail": "Triggering Restore of  Client", 
                    "stepId": "TCS_5", 
                    "startTime": "", 
                    "executionStatus": "Pass"
                }, 
                {
                    "endTime": "", 
                    "testStepDetail": "Single File Restore Successful", 
                    "stepId": "TCS_6", 
                    "startTime": "", 
                    "executionStatus": "Pass"
                }, 
                {
                    "endTime": "", 
                    "testStepDetail": "Single File Checksum Verified", 
                    "stepId": "TCS_7", 
                    "startTime": "", 
                    "executionStatus": "Pass"
                }, 
                {
                    "endTime": "", 
                    "testStepDetail": "Delete client", 
                    "stepId": "TCS_8", 
                    "startTime": "", 
                    "executionStatus": "Pass"
                }, 
                {
                    "endTime": "", 
                    "testStepDetail": "Logout", 
                    "stepId": "TCS_9", 
                    "startTime": "", 
                    "executionStatus": "Pass"
                }
            ], 
            "testDescription": "Verify that you can restore a single file from the master backup.", 
            "testCaseId": "QAAUT_D1", 
            "startTime": "02/16/2017 05:24:53", 
            "executionStatus": "Pass", 
            "duration": "0Hrs 01Mins 50Secs", 
            "endTime": "02/16/2017 05:26:43"
        }, 
        {
            "testCaseStepResult": [
                {
                    "endTime": "", 
                    "testStepDetail": "Login", 
                    "stepId": "TCS_1", 
                    "startTime": "", 
                    "executionStatus": "Pass"
                }, 
                {
                    "endTime": "", 
                    "testStepDetail": "Client addition", 
                    "stepId": "TCS_2", 
                    "startTime": "", 
                    "executionStatus": "Pass"
                }, 
                {
                    "endTime": "", 
                    "testStepDetail": "API request for full backup with include list", 
                    "stepId": "TCS_3", 
                    "startTime": "", 
                    "executionStatus": "Pass"
                }, 
                {
                    "endTime": "", 
                    "testStepDetail": "Full Backup", 
                    "stepId": "TCS_4", 
                    "startTime": "", 
                    "executionStatus": "Pass"
                }, 
                {
                    "endTime": "", 
                    "testStepDetail": "API request for restore", 
                    "stepId": "TCS_5", 
                    "startTime": "", 
                    "executionStatus": "Pass"
                }, 
                {
                    "endTime": "", 
                    "testStepDetail": "Restore of full backup", 
                    "stepId": "TCS_6", 
                    "startTime": "", 
                    "executionStatus": "Pass"
                }, 
                {
                    "endTime": "", 
                    "testStepDetail": "Checksum verification after restore of full backup", 
                    "stepId": "TCS_7", 
                    "startTime": "", 
                    "executionStatus": "Pass"
                }
            ], 
            "testDescription": "Verify Full Backup and Restore of a linux client", 
            "testCaseId": "QAAUT0000", 
            "startTime": "02/16/2017 05:26:46", 
            "executionStatus": "Pass", 
            "duration": "0Hrs 01Mins 49Secs", 
            "endTime": "02/16/2017 05:28:35"
        }, 
        {
            "testCaseStepResult": [
                {
                    "endTime": "", 
                    "testStepDetail": "Login", 
                    "stepId": "TCS_1", 
                    "startTime": "", 
                    "executionStatus": "Pass"
                }, 
                {
                    "endTime": "", 
                    "testStepDetail": "API request for full backup with include list", 
                    "stepId": "TCS_2", 
                    "startTime": "", 
                    "executionStatus": "Pass"
                }, 
                {
                    "endTime": "", 
                    "testStepDetail": "Full backup", 
                    "stepId": "TCS_3", 
                    "startTime": "", 
                    "executionStatus": "Pass"
                }, 
                {
                    "endTime": "", 
                    "testStepDetail": "API request for Incremental Backup", 
                    "stepId": "TCS_4", 
                    "startTime": "", 
                    "executionStatus": "Pass"
                }, 
                {
                    "endTime": "", 
                    "testStepDetail": "Incremental Backup", 
                    "stepId": "TCS_5", 
                    "startTime": "", 
                    "executionStatus": "Pass"
                }, 
                {
                    "endTime": "", 
                    "testStepDetail": "API request for restore of incremental backup", 
                    "stepId": "TCS_6", 
                    "startTime": "", 
                    "executionStatus": "Pass"
                }, 
                {
                    "endTime": "", 
                    "testStepDetail": "restore of incremental backup", 
                    "stepId": "TCS_7", 
                    "startTime": "", 
                    "executionStatus": "Pass"
                }, 
                {
                    "endTime": "", 
                    "testStepDetail": "Checksum verification after restore of incremental backup", 
                    "stepId": "TCS_8", 
                    "startTime": "", 
                    "executionStatus": "Pass"
                }
            ], 
            "testDescription": "Verify Incremental Backup and Restore of a linux client", 
            "testCaseId": "QAAUT0001", 
            "startTime": "02/16/2017 05:28:37", 
            "executionStatus": "Pass", 
            "duration": "0Hrs 02Mins 23Secs", 
            "endTime": "02/16/2017 05:31:00"
        }, 
        {
            "testCaseStepResult": [
                {
                    "endTime": "", 
                    "testStepDetail": "Login", 
                    "stepId": "TCS_1", 
                    "startTime": "", 
                    "executionStatus": "Pass"
                }, 
                {
                    "endTime": "", 
                    "testStepDetail": "API request for full backup with include list", 
                    "stepId": "TCS_2", 
                    "startTime": "", 
                    "executionStatus": "Pass"
                }, 
                {
                    "endTime": "", 
                    "testStepDetail": "Full backup", 
                    "stepId": "TCS_3", 
                    "startTime": "", 
                    "executionStatus": "Pass"
                }, 
                {
                    "endTime": "", 
                    "testStepDetail": "API request for Differential Backup", 
                    "stepId": "TCS_4", 
                    "startTime": "", 
                    "executionStatus": "Pass"
                }, 
                {
                    "endTime": "", 
                    "testStepDetail": "Differential backup", 
                    "stepId": "TCS_5", 
                    "startTime": "", 
                    "executionStatus": "Pass"
                }, 
                {
                    "endTime": "", 
                    "testStepDetail": "API request for restore of differential backup", 
                    "stepId": "TCS_6", 
                    "startTime": "", 
                    "executionStatus": "Pass"
                }, 
                {
                    "endTime": "", 
                    "testStepDetail": "Restore of differential backup", 
                    "stepId": "TCS_7", 
                    "startTime": "", 
                    "executionStatus": "Pass"
                }, 
                {
                    "endTime": "", 
                    "testStepDetail": "Checksum verification after restore of differential backup", 
                    "stepId": "TCS_8", 
                    "startTime": "", 
                    "executionStatus": "Pass"
                }
            ], 
            "testDescription": "Verify Differential Backup and Restore of a linux client", 
            "testCaseId": "QAAUT0002", 
            "startTime": "02/16/2017 05:31:02", 
            "executionStatus": "Pass", 
            "duration": "0Hrs 02Mins 24Secs", 
            "endTime": "02/16/2017 05:33:26"
        }, 
        {
            "testCaseStepResult": [
                {
                    "endTime": "", 
                    "testStepDetail": "Login", 
                    "stepId": "TCS_1", 
                    "startTime": "", 
                    "executionStatus": "Pass"
                }, 
                {
                    "endTime": "", 
                    "testStepDetail": "API request for full backup with exclude list", 
                    "stepId": "TCS_2", 
                    "startTime": "", 
                    "executionStatus": "Pass"
                }, 
                {
                    "endTime": "", 
                    "testStepDetail": "Full backup with exclude list", 
                    "stepId": "TCS_3", 
                    "startTime": "", 
                    "executionStatus": "Pass"
                }, 
                {
                    "endTime": "", 
                    "testStepDetail": "API request for restore of full backup with exclude list ", 
                    "stepId": "TCS_4", 
                    "startTime": "", 
                    "executionStatus": "Pass"
                }, 
                {
                    "endTime": "", 
                    "testStepDetail": "Restore of full backup with exclude list", 
                    "stepId": "TCS_5", 
                    "startTime": "", 
                    "executionStatus": "Pass"
                }, 
                {
                    "endTime": "", 
                    "testStepDetail": "Checksum verification after restore of full backup with exclude list", 
                    "stepId": "TCS_6", 
                    "startTime": "", 
                    "executionStatus": "Pass"
                }
            ], 
            "testDescription": "Verify Full backup and restore of a linux client with exclude list", 
            "testCaseId": "QAAUT0004", 
            "startTime": "02/16/2017 05:33:28", 
            "executionStatus": "Pass", 
            "duration": "0Hrs 01Mins 45Secs", 
            "endTime": "02/16/2017 05:35:13"
        }, 
        {
            "testCaseStepResult": [
                {
                    "endTime": "", 
                    "testStepDetail": "Login", 
                    "stepId": "TCS_1", 
                    "startTime": "", 
                    "executionStatus": "Pass"
                }, 
                {
                    "endTime": "", 
                    "testStepDetail": "API request for full backup with exclude list", 
                    "stepId": "TCS_2", 
                    "startTime": "", 
                    "executionStatus": "Pass"
                }, 
                {
                    "endTime": "", 
                    "testStepDetail": "Full backup with exclude list", 
                    "stepId": "TCS_3", 
                    "startTime": "", 
                    "executionStatus": "Pass"
                }, 
                {
                    "endTime": "", 
                    "testStepDetail": "API request for incremental backup", 
                    "stepId": "TCS_4", 
                    "startTime": "", 
                    "executionStatus": "Pass"
                }, 
                {
                    "endTime": "", 
                    "testStepDetail": "Incremental Backup", 
                    "stepId": "TCS_5", 
                    "startTime": "", 
                    "executionStatus": "Pass"
                }, 
                {
                    "endTime": "", 
                    "testStepDetail": "API request for restore of incremental backup", 
                    "stepId": "TCS_6", 
                    "startTime": "", 
                    "executionStatus": "Pass"
                }, 
                {
                    "endTime": "", 
                    "testStepDetail": "Restore of incremental backup ", 
                    "stepId": "TCS_7", 
                    "startTime": "", 
                    "executionStatus": "Pass"
                }, 
                {
                    "endTime": "", 
                    "testStepDetail": "Checksum verification after restore of incremental backup with exclude list", 
                    "stepId": "TCS_8", 
                    "startTime": "", 
                    "executionStatus": "Pass"
                }
            ], 
            "testDescription": "Verify Incremental backup and restore of a linux client with exclude list", 
            "testCaseId": "QAAUT0005", 
            "startTime": "02/16/2017 05:35:16", 
            "executionStatus": "Pass", 
            "duration": "0Hrs 02Mins 24Secs", 
            "endTime": "02/16/2017 05:37:40"
        }, 
        {
            "testCaseStepResult": [
                {
                    "endTime": "", 
                    "testStepDetail": "Login", 
                    "stepId": "TCS_1", 
                    "startTime": "", 
                    "executionStatus": "Pass"
                }, 
                {
                    "endTime": "", 
                    "testStepDetail": "API request for full backup with exclude list", 
                    "stepId": "TCS_2", 
                    "startTime": "", 
                    "executionStatus": "Pass"
                }, 
                {
                    "endTime": "", 
                    "testStepDetail": "Full backup with exclude list", 
                    "stepId": "TCS_3", 
                    "startTime": "", 
                    "executionStatus": "Pass"
                }, 
                {
                    "endTime": "", 
                    "testStepDetail": "API request for differential Backup", 
                    "stepId": "TCS_4", 
                    "startTime": "", 
                    "executionStatus": "Pass"
                }, 
                {
                    "endTime": "", 
                    "testStepDetail": "Differential backup", 
                    "stepId": "TCS_5", 
                    "startTime": "", 
                    "executionStatus": "Pass"
                }, 
                {
                    "endTime": "", 
                    "testStepDetail": "API request for restore of differential backup with exclude list", 
                    "stepId": "TCS_6", 
                    "startTime": "", 
                    "executionStatus": "Pass"
                }, 
                {
                    "endTime": "", 
                    "testStepDetail": "Restore of differential backup with exclude list", 
                    "stepId": "TCS_7", 
                    "startTime": "", 
                    "executionStatus": "Pass"
                }, 
                {
                    "endTime": "", 
                    "testStepDetail": "Checksum verification after restore of differential backup with exclude list", 
                    "stepId": "TCS_8", 
                    "startTime": "", 
                    "executionStatus": "Pass"
                }
            ], 
            "testDescription": "Verify Differential backup and restore of a linux client with exclude list", 
            "testCaseId": "QAAUT0006", 
            "startTime": "02/16/2017 05:37:42", 
            "executionStatus": "Pass", 
            "duration": "0Hrs 02Mins 24Secs", 
            "endTime": "02/16/2017 05:40:06"
        }, 
        {
            "testCaseStepResult": [
                {
                    "endTime": "", 
                    "testStepDetail": "Login", 
                    "stepId": "TCS_1", 
                    "startTime": "", 
                    "executionStatus": "Pass"
                }, 
                {
                    "endTime": "", 
                    "testStepDetail": "API request to add attached storage to UEB", 
                    "stepId": "TCS_2", 
                    "startTime": "", 
                    "executionStatus": "Pass"
                }, 
                {
                    "endTime": "", 
                    "testStepDetail": "API request for full backup", 
                    "stepId": "TCS_3", 
                    "startTime": "", 
                    "executionStatus": "Pass"
                }, 
                {
                    "endTime": "", 
                    "testStepDetail": "Full backup", 
                    "stepId": "TCS_4", 
                    "startTime": "", 
                    "executionStatus": "Pass"
                }, 
                {
                    "endTime": "", 
                    "testStepDetail": "API request for backup copy of full backup", 
                    "stepId": "TCS_5", 
                    "startTime": "", 
                    "executionStatus": "Pass"
                }, 
                {
                    "endTime": "", 
                    "testStepDetail": "Verify response parameter of backup copy of full backup", 
                    "stepId": "TCS_6", 
                    "startTime": "", 
                    "executionStatus": "Pass"
                }, 
                {
                    "endTime": "", 
                    "testStepDetail": "Backup copy of full backup of a linux client", 
                    "stepId": "TCS_7", 
                    "startTime": "", 
                    "executionStatus": "Pass"
                }, 
                {
                    "endTime": "", 
                    "testStepDetail": "Logout", 
                    "stepId": "TCS_8", 
                    "startTime": "", 
                    "executionStatus": "Pass"
                }
            ], 
            "testDescription": "Verify RPM based full backup can be archived", 
            "testCaseId": "QAAUT0007", 
            "startTime": "02/16/2017 05:40:08", 
            "executionStatus": "Pass", 
            "duration": "0Hrs 01Mins 17Secs", 
            "endTime": "02/16/2017 05:41:25"
        }, 
        {
            "testCaseStepResult": [
                {
                    "endTime": "", 
                    "testStepDetail": "Login", 
                    "stepId": "TCS_1", 
                    "startTime": "", 
                    "executionStatus": "Pass"
                }, 
                {
                    "endTime": "", 
                    "testStepDetail": "API request to add attached storage to UEB", 
                    "stepId": "TCS_2", 
                    "startTime": "", 
                    "executionStatus": "Pass"
                }, 
                {
                    "endTime": "", 
                    "testStepDetail": "API request for full backup", 
                    "stepId": "TCS_3", 
                    "startTime": "", 
                    "executionStatus": "Pass"
                }, 
                {
                    "endTime": "", 
                    "testStepDetail": "Full backup", 
                    "stepId": "TCS_4", 
                    "startTime": "", 
                    "executionStatus": "Pass"
                }, 
                {
                    "endTime": "", 
                    "testStepDetail": "API request for Incremental Backup ", 
                    "stepId": "TCS_5", 
                    "startTime": "", 
                    "executionStatus": "Pass"
                }, 
                {
                    "endTime": "", 
                    "testStepDetail": " Incremental backup", 
                    "stepId": "TCS_6", 
                    "startTime": "", 
                    "executionStatus": "Pass"
                }, 
                {
                    "endTime": "", 
                    "testStepDetail": "API request for Backup copy of incremental backup", 
                    "stepId": "TCS_7", 
                    "startTime": "", 
                    "executionStatus": "Pass"
                }, 
                {
                    "endTime": "", 
                    "testStepDetail": "Verify response parameter for backup copy of incremental backup ", 
                    "stepId": "TCS_8", 
                    "startTime": "", 
                    "executionStatus": "Pass"
                }, 
                {
                    "endTime": "", 
                    "testStepDetail": "Backup copy of incremental backup of a linux client", 
                    "stepId": "TCS_9", 
                    "startTime": "", 
                    "executionStatus": "Pass"
                }, 
                {
                    "endTime": "", 
                    "testStepDetail": "Logout", 
                    "stepId": "TCS_10", 
                    "startTime": "", 
                    "executionStatus": "Pass"
                }
            ], 
            "testDescription": "Verify RPM based incremental backup can be archived", 
            "testCaseId": "QAAUT0008", 
            "startTime": "02/16/2017 05:41:27", 
            "executionStatus": "Pass", 
            "duration": "0Hrs 02Mins 47Secs", 
            "endTime": "02/16/2017 05:44:14"
        }, 
        {
            "testCaseStepResult": [
                {
                    "endTime": "", 
                    "testStepDetail": "Login", 
                    "stepId": "TCS_1", 
                    "startTime": "", 
                    "executionStatus": "Pass"
                }, 
                {
                    "endTime": "", 
                    "testStepDetail": "Send API request to add attached storage to UEB", 
                    "stepId": "TCS_2", 
                    "startTime": "", 
                    "executionStatus": "Pass"
                }, 
                {
                    "endTime": "", 
                    "testStepDetail": "API request to add attached storage to UEB", 
                    "stepId": "TCS_3", 
                    "startTime": "", 
                    "executionStatus": "Pass"
                }, 
                {
                    "endTime": "", 
                    "testStepDetail": "Full backup", 
                    "stepId": "TCS_4", 
                    "startTime": "", 
                    "executionStatus": "Pass"
                }, 
                {
                    "endTime": "", 
                    "testStepDetail": "API request for differential Backup", 
                    "stepId": "TCS_5", 
                    "startTime": "", 
                    "executionStatus": "Pass"
                }, 
                {
                    "endTime": "", 
                    "testStepDetail": "Differential backup", 
                    "stepId": "TCS_6", 
                    "startTime": "", 
                    "executionStatus": "Pass"
                }, 
                {
                    "endTime": "", 
                    "testStepDetail": "API request for Backup copy of differential backup", 
                    "stepId": "TCS_7", 
                    "startTime": "", 
                    "executionStatus": "Pass"
                }, 
                {
                    "endTime": "", 
                    "testStepDetail": "Verify response parameter for API request for Backup copy of differential backup", 
                    "stepId": "TCS_8", 
                    "startTime": "", 
                    "executionStatus": "Pass"
                }, 
                {
                    "endTime": "", 
                    "testStepDetail": "Backup copy of differential backup of a linux client", 
                    "stepId": "TCS_9", 
                    "startTime": "", 
                    "executionStatus": "Pass"
                }, 
                {
                    "endTime": "", 
                    "testStepDetail": "Logout", 
                    "stepId": "TCS_10", 
                    "startTime": "", 
                    "executionStatus": "Pass"
                }
            ], 
            "testDescription": "Verify RPM based differential backup can be archived", 
            "testCaseId": "QAAUT0009", 
            "startTime": "02/16/2017 05:44:16", 
            "executionStatus": "Pass", 
            "duration": "0Hrs 01Mins 46Secs", 
            "endTime": "02/16/2017 05:46:02"
        }, 
        {
            "testCaseStepResult": [
                {
                    "endTime": "", 
                    "testStepDetail": "Login", 
                    "stepId": "TCS_1", 
                    "startTime": "", 
                    "executionStatus": "Pass"
                }, 
                {
                    "endTime": "", 
                    "testStepDetail": "Send API request to add attached storage to UEB", 
                    "stepId": "TCS_2", 
                    "startTime": "", 
                    "executionStatus": "Pass"
                }, 
                {
                    "endTime": "", 
                    "testStepDetail": "API request for selective backup", 
                    "stepId": "TCS_3", 
                    "startTime": "", 
                    "executionStatus": "Pass"
                }, 
                {
                    "endTime": "", 
                    "testStepDetail": "Selective backup", 
                    "stepId": "TCS_4", 
                    "startTime": "", 
                    "executionStatus": "Pass"
                }, 
                {
                    "endTime": "", 
                    "testStepDetail": "API request for Backup copy of selective backup", 
                    "stepId": "TCS_5", 
                    "startTime": "", 
                    "executionStatus": "Pass"
                }, 
                {
                    "endTime": "", 
                    "testStepDetail": "Verify response parameter for API request for Backup copy of selective backup", 
                    "stepId": "TCS_6", 
                    "startTime": "", 
                    "executionStatus": "Pass"
                }, 
                {
                    "endTime": "", 
                    "testStepDetail": "Backup copy of selective backup of a linux client", 
                    "stepId": "TCS_7", 
                    "startTime": "", 
                    "executionStatus": "Pass"
                }, 
                {
                    "endTime": "", 
                    "testStepDetail": "Logout", 
                    "stepId": "TCS_8", 
                    "startTime": "", 
                    "executionStatus": "Pass"
                }
            ], 
            "testDescription": "Verify RPM based selective backup can be archived", 
            "testCaseId": "QAAUT0010", 
            "startTime": "02/16/2017 05:46:04", 
            "executionStatus": "Pass", 
            "duration": "0Hrs 01Mins 44Secs", 
            "endTime": "02/16/2017 05:47:48"
        }
    ]
}