{
    "endTime": "02/16/2017 19:40:16", 
    "passedTC": 2, 
    "buildNum": "9.2.0-2.2017021522", 
    "totalTC": 2, 
    "failedTC": 0, 
    "startTime": "02/16/2017 19:36:04", 
    "duration": "0Hrs 04Mins 12Secs", 
    "executionResult": "Pass", 
    "_id": "E-568", 
    "testCaseResultList": [
        {
            "testCaseStepResult": [
                {
                    "endTime": "", 
                    "testStepDetail": "Login", 
                    "stepId": "TCS_1", 
                    "startTime": "", 
                    "executionStatus": "Pass"
                }, 
                {
                    "endTime": "", 
                    "testStepDetail": "Triggering Backup Job", 
                    "stepId": "TCS_2", 
                    "startTime": "", 
                    "executionStatus": "Pass"
                }, 
                {
                    "endTime": "", 
                    "testStepDetail": "Backup Successful", 
                    "stepId": "TCS_3", 
                    "startTime": "", 
                    "executionStatus": "Pass"
                }, 
                {
                    "endTime": "", 
                    "testStepDetail": "Triggering Restore of Client at first location", 
                    "stepId": "TCS_4", 
                    "startTime": "", 
                    "executionStatus": "Pass"
                }, 
                {
                    "endTime": "", 
                    "testStepDetail": "Restore Successful at first location", 
                    "stepId": "TCS_5", 
                    "startTime": "", 
                    "executionStatus": "Pass"
                }, 
                {
                    "endTime": "", 
                    "testStepDetail": "Checksum Verified at first location", 
                    "stepId": "TCS_6", 
                    "startTime": "", 
                    "executionStatus": "Pass"
                }, 
                {
                    "endTime": "", 
                    "testStepDetail": "Triggering Restore of Client at second location", 
                    "stepId": "TCS_7", 
                    "startTime": "", 
                    "executionStatus": "Pass"
                }, 
                {
                    "endTime": "", 
                    "testStepDetail": "Restore Successful at second location", 
                    "stepId": "TCS_8", 
                    "startTime": "", 
                    "executionStatus": "Pass"
                }, 
                {
                    "endTime": "", 
                    "testStepDetail": "Checksum Verified at first location", 
                    "stepId": "TCS_9", 
                    "startTime": "", 
                    "executionStatus": "Pass"
                }, 
                {
                    "endTime": "", 
                    "testStepDetail": "Delete client", 
                    "stepId": "TCS_10", 
                    "startTime": "", 
                    "executionStatus": "Pass"
                }, 
                {
                    "endTime": "", 
                    "testStepDetail": "Logout", 
                    "stepId": "TCS_11", 
                    "startTime": "", 
                    "executionStatus": "Pass"
                }
            ], 
            "testDescription": "Verify if multiple restore for the same data on different locations works on RHEL.", 
            "testCaseId": "QAAUT_D2", 
            "startTime": "02/16/2017 19:36:04", 
            "executionStatus": "Pass", 
            "duration": "0Hrs 02Mins 20Secs", 
            "endTime": "02/16/2017 19:38:24"
        }, 
        {
            "testCaseStepResult": [
                {
                    "endTime": "", 
                    "testStepDetail": "Login", 
                    "stepId": "TCS_1", 
                    "startTime": "", 
                    "executionStatus": "Pass"
                }, 
                {
                    "endTime": "", 
                    "testStepDetail": "Addition of client", 
                    "stepId": "TCS_2", 
                    "startTime": "", 
                    "executionStatus": "Pass"
                }, 
                {
                    "endTime": "", 
                    "testStepDetail": "Triggering Backup Job", 
                    "stepId": "TCS_3", 
                    "startTime": "", 
                    "executionStatus": "Pass"
                }, 
                {
                    "endTime": "", 
                    "testStepDetail": "Backup Successful", 
                    "stepId": "TCS_4", 
                    "startTime": "", 
                    "executionStatus": "Pass"
                }, 
                {
                    "endTime": "", 
                    "testStepDetail": "Triggering Restore of  Client", 
                    "stepId": "TCS_5", 
                    "startTime": "", 
                    "executionStatus": "Pass"
                }, 
                {
                    "endTime": "", 
                    "testStepDetail": "Single File Restore Successful", 
                    "stepId": "TCS_6", 
                    "startTime": "", 
                    "executionStatus": "Pass"
                }, 
                {
                    "endTime": "", 
                    "testStepDetail": "Single File Checksum Verified", 
                    "stepId": "TCS_7", 
                    "startTime": "", 
                    "executionStatus": "Pass"
                }, 
                {
                    "endTime": "", 
                    "testStepDetail": "Delete client", 
                    "stepId": "TCS_8", 
                    "startTime": "", 
                    "executionStatus": "Pass"
                }, 
                {
                    "endTime": "", 
                    "testStepDetail": "Logout", 
                    "stepId": "TCS_9", 
                    "startTime": "", 
                    "executionStatus": "Pass"
                }
            ], 
            "testDescription": "Verify that you can restore a single file from the master backup.", 
            "testCaseId": "QAAUT_D1", 
            "startTime": "02/16/2017 19:38:26", 
            "executionStatus": "Pass", 
            "duration": "0Hrs 01Mins 50Secs", 
            "endTime": "02/16/2017 19:40:16"
        }
    ]
}