{
    "endTime": "02/17/2017 00:57:53", 
    "passedTC": 3, 
    "buildNum": "9.2.0-2.2017021522", 
    "totalTC": 3, 
    "failedTC": 0, 
    "startTime": "02/17/2017 00:43:05", 
    "duration": "0Hrs 14Mins 48Secs", 
    "executionResult": "Pass", 
    "_id": "E-572", 
    "testCaseResultList": [
        {
            "testCaseStepResult": [
                {
                    "endTime": "", 
                    "testStepDetail": "Login", 
                    "stepId": "TCS_1", 
                    "startTime": "", 
                    "executionStatus": "Pass"
                }, 
                {
                    "endTime": "", 
                    "testStepDetail": "Encryption Off", 
                    "stepId": "TCS_2", 
                    "startTime": "", 
                    "executionStatus": "Pass"
                }, 
                {
                    "endTime": "", 
                    "testStepDetail": "Addition of windows client", 
                    "stepId": "TCS_3", 
                    "startTime": "", 
                    "executionStatus": "Pass"
                }, 
                {
                    "endTime": "", 
                    "testStepDetail": "Triggering Backup Job", 
                    "stepId": "TCS_4", 
                    "startTime": "", 
                    "executionStatus": "Pass"
                }, 
                {
                    "endTime": "", 
                    "testStepDetail": "Backup Successful", 
                    "stepId": "TCS_5", 
                    "startTime": "", 
                    "executionStatus": "Pass"
                }, 
                {
                    "endTime": "", 
                    "testStepDetail": "Backup Not Encrypted", 
                    "stepId": "TCS_6", 
                    "startTime": "", 
                    "executionStatus": "Pass"
                }, 
                {
                    "endTime": "", 
                    "testStepDetail": "Backup inline deduplicated", 
                    "stepId": "TCS_7", 
                    "startTime": "", 
                    "executionStatus": "Pass"
                }, 
                {
                    "endTime": "", 
                    "testStepDetail": "Triggering Restore of Client", 
                    "stepId": "TCS_8", 
                    "startTime": "", 
                    "executionStatus": "Pass"
                }, 
                {
                    "endTime": "", 
                    "testStepDetail": "Restore Successful", 
                    "stepId": "TCS_9", 
                    "startTime": "", 
                    "executionStatus": "Pass"
                }, 
                {
                    "endTime": "", 
                    "testStepDetail": "Restore verification", 
                    "stepId": "TCS_10", 
                    "startTime": "", 
                    "executionStatus": "Pass"
                }, 
                {
                    "endTime": "", 
                    "testStepDetail": "Logout", 
                    "stepId": "TCS_11", 
                    "startTime": "", 
                    "executionStatus": "Pass"
                }
            ], 
            "testDescription": "Verify that Full backup and restore of Windows2016 client with include list, Inline dedupe on and Encryption off is successful", 
            "testCaseId": "QAAUT_Win001", 
            "startTime": "02/17/2017 00:43:05", 
            "executionStatus": "Pass", 
            "duration": "0Hrs 03Mins 49Secs", 
            "endTime": "02/17/2017 00:46:54"
        }, 
        {
            "testCaseStepResult": [
                {
                    "endTime": "", 
                    "testStepDetail": "Login", 
                    "stepId": "TCS_1", 
                    "startTime": "", 
                    "executionStatus": "Pass"
                }, 
                {
                    "endTime": "", 
                    "testStepDetail": "Encryption Off", 
                    "stepId": "TCS_2", 
                    "startTime": "", 
                    "executionStatus": "Pass"
                }, 
                {
                    "endTime": "", 
                    "testStepDetail": "Triggering Backup Job", 
                    "stepId": "TCS_3", 
                    "startTime": "", 
                    "executionStatus": "Pass"
                }, 
                {
                    "endTime": "", 
                    "testStepDetail": "Backup Successful", 
                    "stepId": "TCS_4", 
                    "startTime": "", 
                    "executionStatus": "Pass"
                }, 
                {
                    "endTime": "", 
                    "testStepDetail": "Triggering incremental Backup Job", 
                    "stepId": "TCS_5", 
                    "startTime": "", 
                    "executionStatus": "Pass"
                }, 
                {
                    "endTime": "", 
                    "testStepDetail": "Backup Successful", 
                    "stepId": "TCS_6", 
                    "startTime": "", 
                    "executionStatus": "Pass"
                }, 
                {
                    "endTime": "", 
                    "testStepDetail": "Backup Not Encrypted", 
                    "stepId": "TCS_7", 
                    "startTime": "", 
                    "executionStatus": "Pass"
                }, 
                {
                    "endTime": "", 
                    "testStepDetail": "Backup inline deduplicated", 
                    "stepId": "TCS_8", 
                    "startTime": "", 
                    "executionStatus": "Pass"
                }, 
                {
                    "endTime": "", 
                    "testStepDetail": "Triggering Restore of Client", 
                    "stepId": "TCS_9", 
                    "startTime": "", 
                    "executionStatus": "Pass"
                }, 
                {
                    "endTime": "", 
                    "testStepDetail": "Restore Successful", 
                    "stepId": "TCS_10", 
                    "startTime": "", 
                    "executionStatus": "Pass"
                }, 
                {
                    "endTime": "", 
                    "testStepDetail": "Restore verification", 
                    "stepId": "TCS_11", 
                    "startTime": "", 
                    "executionStatus": "Pass"
                }, 
                {
                    "endTime": "", 
                    "testStepDetail": "Logout", 
                    "stepId": "TCS_12", 
                    "startTime": "", 
                    "executionStatus": "Pass"
                }
            ], 
            "testDescription": "Verify that incremental backup and restore of Windows2016 client with include list, Inline dedupe on and Encryption off is successful", 
            "testCaseId": "QAAUT_Win002", 
            "startTime": "02/17/2017 00:47:01", 
            "executionStatus": "Pass", 
            "duration": "0Hrs 05Mins 23Secs", 
            "endTime": "02/17/2017 00:52:24"
        }, 
        {
            "testCaseStepResult": [
                {
                    "endTime": "", 
                    "testStepDetail": "Login", 
                    "stepId": "TCS_1", 
                    "startTime": "", 
                    "executionStatus": "Pass"
                }, 
                {
                    "endTime": "", 
                    "testStepDetail": "Encryption Off", 
                    "stepId": "TCS_2", 
                    "startTime": "", 
                    "executionStatus": "Pass"
                }, 
                {
                    "endTime": "", 
                    "testStepDetail": "Triggering Backup Job", 
                    "stepId": "TCS_3", 
                    "startTime": "", 
                    "executionStatus": "Pass"
                }, 
                {
                    "endTime": "", 
                    "testStepDetail": "Backup Successful", 
                    "stepId": "TCS_4", 
                    "startTime": "", 
                    "executionStatus": "Pass"
                }, 
                {
                    "endTime": "", 
                    "testStepDetail": "Triggering differential Backup Job", 
                    "stepId": "TCS_5", 
                    "startTime": "", 
                    "executionStatus": "Pass"
                }, 
                {
                    "endTime": "", 
                    "testStepDetail": "Backup Successful", 
                    "stepId": "TCS_6", 
                    "startTime": "", 
                    "executionStatus": "Pass"
                }, 
                {
                    "endTime": "", 
                    "testStepDetail": "Backup Not Encrypted", 
                    "stepId": "TCS_7", 
                    "startTime": "", 
                    "executionStatus": "Pass"
                }, 
                {
                    "endTime": "", 
                    "testStepDetail": "Backup inline deduplicated", 
                    "stepId": "TCS_8", 
                    "startTime": "", 
                    "executionStatus": "Pass"
                }, 
                {
                    "endTime": "", 
                    "testStepDetail": "Triggering Restore of Client", 
                    "stepId": "TCS_9", 
                    "startTime": "", 
                    "executionStatus": "Pass"
                }, 
                {
                    "endTime": "", 
                    "testStepDetail": "Restore Successful", 
                    "stepId": "TCS_10", 
                    "startTime": "", 
                    "executionStatus": "Pass"
                }, 
                {
                    "endTime": "", 
                    "testStepDetail": "Restore verification", 
                    "stepId": "TCS_11", 
                    "startTime": "", 
                    "executionStatus": "Pass"
                }, 
                {
                    "endTime": "", 
                    "testStepDetail": "Logout", 
                    "stepId": "TCS_12", 
                    "startTime": "", 
                    "executionStatus": "Pass"
                }
            ], 
            "testDescription": "Verify that differential backup and restore of Windows2016 client with Inline dedupe on and Encryption off is successful", 
            "testCaseId": "QAAUT_Win003", 
            "startTime": "02/17/2017 00:52:26", 
            "executionStatus": "Pass", 
            "duration": "0Hrs 05Mins 26Secs", 
            "endTime": "02/17/2017 00:57:52"
        }
    ]
}