{
    "endTime": "02/18/2017 16:38:28", 
    "passedTC": 3, 
    "buildNum": "9.2.0-2.2017021722", 
    "totalTC": 3, 
    "failedTC": 0, 
    "startTime": "02/18/2017 16:25:34", 
    "duration": "0Hrs 12Mins 54Secs", 
    "executionResult": "Pass", 
    "_id": "E-597", 
    "testCaseResultList": [
        {
            "testCaseStepResult": [
                {
                    "endTime": "", 
                    "testStepDetail": "Login", 
                    "stepId": "TCS_1", 
                    "startTime": "", 
                    "executionStatus": "Pass"
                }, 
                {
                    "endTime": "", 
                    "testStepDetail": "Encryption Off", 
                    "stepId": "TCS_2", 
                    "startTime": "", 
                    "executionStatus": "Pass"
                }, 
                {
                    "endTime": "", 
                    "testStepDetail": "Inline Dedup set for appliance", 
                    "stepId": "TCS_3", 
                    "startTime": "", 
                    "executionStatus": "Pass"
                }, 
                {
                    "endTime": "", 
                    "testStepDetail": "Addition of windows client", 
                    "stepId": "TCS_4", 
                    "startTime": "", 
                    "executionStatus": "Pass"
                }, 
                {
                    "endTime": "", 
                    "testStepDetail": "Triggering Backup Job", 
                    "stepId": "TCS_5", 
                    "startTime": "", 
                    "executionStatus": "Pass"
                }, 
                {
                    "endTime": "", 
                    "testStepDetail": "Backup Successful", 
                    "stepId": "TCS_6", 
                    "startTime": "", 
                    "executionStatus": "Pass"
                }, 
                {
                    "endTime": "", 
                    "testStepDetail": "Backup Not Encrypted", 
                    "stepId": "TCS_7", 
                    "startTime": "", 
                    "executionStatus": "Pass"
                }, 
                {
                    "endTime": "", 
                    "testStepDetail": "Backup inline deduplicated", 
                    "stepId": "TCS_8", 
                    "startTime": "", 
                    "executionStatus": "Pass"
                }, 
                {
                    "endTime": "", 
                    "testStepDetail": "Triggering Restore of Client", 
                    "stepId": "TCS_9", 
                    "startTime": "", 
                    "executionStatus": "Pass"
                }, 
                {
                    "endTime": "", 
                    "testStepDetail": "Restore Successful", 
                    "stepId": "TCS_10", 
                    "startTime": "", 
                    "executionStatus": "Pass"
                }, 
                {
                    "endTime": "", 
                    "testStepDetail": "Restore verification", 
                    "stepId": "TCS_11", 
                    "startTime": "", 
                    "executionStatus": "Pass"
                }, 
                {
                    "endTime": "", 
                    "testStepDetail": "Logout", 
                    "stepId": "TCS_12", 
                    "startTime": "", 
                    "executionStatus": "Pass"
                }
            ], 
            "testDescription": "Verify that Full backup and restore of client with include list, Inline dedupe on and Encryption off is successful. : windows2016", 
            "testCaseId": "QAAUT_Win001", 
            "startTime": "02/18/2017 16:25:34", 
            "executionStatus": "Pass", 
            "duration": "0Hrs 03Mins 17Secs", 
            "endTime": "02/18/2017 16:28:51"
        }, 
        {
            "testCaseStepResult": [
                {
                    "endTime": "", 
                    "testStepDetail": "Login", 
                    "stepId": "TCS_1", 
                    "startTime": "", 
                    "executionStatus": "Pass"
                }, 
                {
                    "endTime": "", 
                    "testStepDetail": "Encryption Off", 
                    "stepId": "TCS_2", 
                    "startTime": "", 
                    "executionStatus": "Pass"
                }, 
                {
                    "endTime": "", 
                    "testStepDetail": "Triggering Backup Job", 
                    "stepId": "TCS_3", 
                    "startTime": "", 
                    "executionStatus": "Pass"
                }, 
                {
                    "endTime": "", 
                    "testStepDetail": "Backup Successful", 
                    "stepId": "TCS_4", 
                    "startTime": "", 
                    "executionStatus": "Pass"
                }, 
                {
                    "endTime": "", 
                    "testStepDetail": "Triggering incremental Backup Job", 
                    "stepId": "TCS_5", 
                    "startTime": "", 
                    "executionStatus": "Pass"
                }, 
                {
                    "endTime": "", 
                    "testStepDetail": "Backup Successful", 
                    "stepId": "TCS_6", 
                    "startTime": "", 
                    "executionStatus": "Pass"
                }, 
                {
                    "endTime": "", 
                    "testStepDetail": "Backup Not Encrypted", 
                    "stepId": "TCS_7", 
                    "startTime": "", 
                    "executionStatus": "Pass"
                }, 
                {
                    "endTime": "", 
                    "testStepDetail": "Backup inline deduplicated", 
                    "stepId": "TCS_8", 
                    "startTime": "", 
                    "executionStatus": "Pass"
                }, 
                {
                    "endTime": "", 
                    "testStepDetail": "Triggering Restore of Client", 
                    "stepId": "TCS_9", 
                    "startTime": "", 
                    "executionStatus": "Pass"
                }, 
                {
                    "endTime": "", 
                    "testStepDetail": "Restore Successful", 
                    "stepId": "TCS_10", 
                    "startTime": "", 
                    "executionStatus": "Pass"
                }, 
                {
                    "endTime": "", 
                    "testStepDetail": "Restore verification", 
                    "stepId": "TCS_11", 
                    "startTime": "", 
                    "executionStatus": "Pass"
                }, 
                {
                    "endTime": "", 
                    "testStepDetail": "Logout", 
                    "stepId": "TCS_12", 
                    "startTime": "", 
                    "executionStatus": "Pass"
                }
            ], 
            "testDescription": "Verify that incremental backup and restore of client with include list, Inline dedupe on and Encryption off is successful. : windows2016", 
            "testCaseId": "QAAUT_Win002", 
            "startTime": "02/18/2017 16:28:59", 
            "executionStatus": "Pass", 
            "duration": "0Hrs 04Mins 43Secs", 
            "endTime": "02/18/2017 16:33:42"
        }, 
        {
            "testCaseStepResult": [
                {
                    "endTime": "", 
                    "testStepDetail": "Login", 
                    "stepId": "TCS_1", 
                    "startTime": "", 
                    "executionStatus": "Pass"
                }, 
                {
                    "endTime": "", 
                    "testStepDetail": "Encryption Off", 
                    "stepId": "TCS_2", 
                    "startTime": "", 
                    "executionStatus": "Pass"
                }, 
                {
                    "endTime": "", 
                    "testStepDetail": "Triggering Backup Job", 
                    "stepId": "TCS_3", 
                    "startTime": "", 
                    "executionStatus": "Pass"
                }, 
                {
                    "endTime": "", 
                    "testStepDetail": "Backup Successful", 
                    "stepId": "TCS_4", 
                    "startTime": "", 
                    "executionStatus": "Pass"
                }, 
                {
                    "endTime": "", 
                    "testStepDetail": "Triggering differential Backup Job", 
                    "stepId": "TCS_5", 
                    "startTime": "", 
                    "executionStatus": "Pass"
                }, 
                {
                    "endTime": "", 
                    "testStepDetail": "Backup Successful", 
                    "stepId": "TCS_6", 
                    "startTime": "", 
                    "executionStatus": "Pass"
                }, 
                {
                    "endTime": "", 
                    "testStepDetail": "Backup Not Encrypted", 
                    "stepId": "TCS_7", 
                    "startTime": "", 
                    "executionStatus": "Pass"
                }, 
                {
                    "endTime": "", 
                    "testStepDetail": "Backup inline deduplicated", 
                    "stepId": "TCS_8", 
                    "startTime": "", 
                    "executionStatus": "Pass"
                }, 
                {
                    "endTime": "", 
                    "testStepDetail": "Triggering Restore of Client", 
                    "stepId": "TCS_9", 
                    "startTime": "", 
                    "executionStatus": "Pass"
                }, 
                {
                    "endTime": "", 
                    "testStepDetail": "Restore Successful", 
                    "stepId": "TCS_10", 
                    "startTime": "", 
                    "executionStatus": "Pass"
                }, 
                {
                    "endTime": "", 
                    "testStepDetail": "Restore verification", 
                    "stepId": "TCS_11", 
                    "startTime": "", 
                    "executionStatus": "Pass"
                }, 
                {
                    "endTime": "", 
                    "testStepDetail": "Logout", 
                    "stepId": "TCS_12", 
                    "startTime": "", 
                    "executionStatus": "Pass"
                }
            ], 
            "testDescription": "Verify that differential backup and restore of client with Inline dedupe on and Encryption off is successful. : windows2016", 
            "testCaseId": "QAAUT_Win003", 
            "startTime": "02/18/2017 16:33:47", 
            "executionStatus": "Pass", 
            "duration": "0Hrs 04Mins 40Secs", 
            "endTime": "02/18/2017 16:38:27"
        }
    ]
}